Analysis & Synthesis report for Range_Sensor
Wed May 30 15:35:42 2018
Quartus II 64-Bit Version 13.0.1 Build 232 06/12/2013 Service Pack 1 SJ Web Edition


---------------------
; Table of Contents ;
---------------------
  1. Legal Notice
  2. Analysis & Synthesis Summary
  3. Analysis & Synthesis Settings
  4. Parallel Compilation
  5. Analysis & Synthesis Source Files Read
  6. Analysis & Synthesis Resource Usage Summary
  7. Analysis & Synthesis Resource Utilization by Entity
  8. General Register Statistics
  9. Parameter Settings for User Entity Instance: range_sensor:range_sens|trigger_generator:trig|counter:trigg
 10. Parameter Settings for User Entity Instance: range_sensor:range_sens|Distance_calculator:dist|counter:Counter_pulse
 11. Parameter Settings for User Entity Instance: display_ctr:display|counter:Counter_display
 12. Port Connectivity Checks: "display_ctr:display|counter:Counter_display"
 13. Port Connectivity Checks: "display_ctr:display"
 14. Port Connectivity Checks: "range_sensor:range_sens|trigger_generator:trig|counter:trigg"
 15. Elapsed Time Per Partition
 16. Analysis & Synthesis Messages



----------------
; Legal Notice ;
----------------
Copyright (C) 1991-2013 Altera Corporation
Your use of Altera Corporation's design tools, logic functions 
and other software and tools, and its AMPP partner logic 
functions, and any output files from any of the foregoing 
(including device programming or simulation files), and any 
associated documentation or information are expressly subject 
to the terms and conditions of the Altera Program License 
Subscription Agreement, Altera MegaCore Function License 
Agreement, or other applicable license agreement, including, 
without limitation, that your use is for the sole purpose of 
programming logic devices manufactured by Altera and sold by 
Altera or its authorized distributors.  Please refer to the 
applicable agreement for further details.



+--------------------------------------------------------------------------------------+
; Analysis & Synthesis Summary                                                         ;
+------------------------------------+-------------------------------------------------+
; Analysis & Synthesis Status        ; Successful - Wed May 30 15:35:42 2018           ;
; Quartus II 64-Bit Version          ; 13.0.1 Build 232 06/12/2013 SP 1 SJ Web Edition ;
; Revision Name                      ; Range_Sensor                                    ;
; Top-level Entity Name              ; top_range_sensor                                ;
; Family                             ; Cyclone II                                      ;
; Total logic elements               ; 168                                             ;
;     Total combinational functions  ; 168                                             ;
;     Dedicated logic registers      ; 75                                              ;
; Total registers                    ; 75                                              ;
; Total pins                         ; 15                                              ;
; Total virtual pins                 ; 0                                               ;
; Total memory bits                  ; 0                                               ;
; Embedded Multiplier 9-bit elements ; 0                                               ;
; Total PLLs                         ; 0                                               ;
+------------------------------------+-------------------------------------------------+


+----------------------------------------------------------------------------------------------------------------------+
; Analysis & Synthesis Settings                                                                                        ;
+----------------------------------------------------------------------------+--------------------+--------------------+
; Option                                                                     ; Setting            ; Default Value      ;
+----------------------------------------------------------------------------+--------------------+--------------------+
; Device                                                                     ; EP2C5Q208C8        ;                    ;
; Top-level entity name                                                      ; Top_Range_Sensor   ; Range_Sensor       ;
; Family name                                                                ; Cyclone II         ; Cyclone IV GX      ;
; Use smart compilation                                                      ; Off                ; Off                ;
; Enable parallel Assembler and TimeQuest Timing Analyzer during compilation ; On                 ; On                 ;
; Enable compact report table                                                ; Off                ; Off                ;
; Restructure Multiplexers                                                   ; Auto               ; Auto               ;
; Create Debugging Nodes for IP Cores                                        ; Off                ; Off                ;
; Preserve fewer node names                                                  ; On                 ; On                 ;
; Disable OpenCore Plus hardware evaluation                                  ; Off                ; Off                ;
; Verilog Version                                                            ; Verilog_2001       ; Verilog_2001       ;
; VHDL Version                                                               ; VHDL_1993          ; VHDL_1993          ;
; State Machine Processing                                                   ; Auto               ; Auto               ;
; Safe State Machine                                                         ; Off                ; Off                ;
; Extract Verilog State Machines                                             ; On                 ; On                 ;
; Extract VHDL State Machines                                                ; On                 ; On                 ;
; Ignore Verilog initial constructs                                          ; Off                ; Off                ;
; Iteration limit for constant Verilog loops                                 ; 5000               ; 5000               ;
; Iteration limit for non-constant Verilog loops                             ; 250                ; 250                ;
; Add Pass-Through Logic to Inferred RAMs                                    ; On                 ; On                 ;
; Infer RAMs from Raw Logic                                                  ; On                 ; On                 ;
; Parallel Synthesis                                                         ; On                 ; On                 ;
; DSP Block Balancing                                                        ; Auto               ; Auto               ;
; NOT Gate Push-Back                                                         ; On                 ; On                 ;
; Power-Up Don't Care                                                        ; On                 ; On                 ;
; Remove Redundant Logic Cells                                               ; Off                ; Off                ;
; Remove Duplicate Registers                                                 ; On                 ; On                 ;
; Ignore CARRY Buffers                                                       ; Off                ; Off                ;
; Ignore CASCADE Buffers                                                     ; Off                ; Off                ;
; Ignore GLOBAL Buffers                                                      ; Off                ; Off                ;
; Ignore ROW GLOBAL Buffers                                                  ; Off                ; Off                ;
; Ignore LCELL Buffers                                                       ; Off                ; Off                ;
; Ignore SOFT Buffers                                                        ; On                 ; On                 ;
; Limit AHDL Integers to 32 Bits                                             ; Off                ; Off                ;
; Optimization Technique                                                     ; Balanced           ; Balanced           ;
; Carry Chain Length                                                         ; 70                 ; 70                 ;
; Auto Carry Chains                                                          ; On                 ; On                 ;
; Auto Open-Drain Pins                                                       ; On                 ; On                 ;
; Perform WYSIWYG Primitive Resynthesis                                      ; Off                ; Off                ;
; Auto ROM Replacement                                                       ; On                 ; On                 ;
; Auto RAM Replacement                                                       ; On                 ; On                 ;
; Auto Shift Register Replacement                                            ; Auto               ; Auto               ;
; Allow Shift Register Merging across Hierarchies                            ; Auto               ; Auto               ;
; Auto Clock Enable Replacement                                              ; On                 ; On                 ;
; Strict RAM Replacement                                                     ; Off                ; Off                ;
; Allow Synchronous Control Signals                                          ; On                 ; On                 ;
; Force Use of Synchronous Clear Signals                                     ; Off                ; Off                ;
; Auto RAM to Logic Cell Conversion                                          ; Off                ; Off                ;
; Auto Resource Sharing                                                      ; Off                ; Off                ;
; Allow Any RAM Size For Recognition                                         ; Off                ; Off                ;
; Allow Any ROM Size For Recognition                                         ; Off                ; Off                ;
; Allow Any Shift Register Size For Recognition                              ; Off                ; Off                ;
; Use LogicLock Constraints during Resource Balancing                        ; On                 ; On                 ;
; Ignore translate_off and synthesis_off directives                          ; Off                ; Off                ;
; Timing-Driven Synthesis                                                    ; Off                ; Off                ;
; Report Parameter Settings                                                  ; On                 ; On                 ;
; Report Source Assignments                                                  ; On                 ; On                 ;
; Report Connectivity Checks                                                 ; On                 ; On                 ;
; Ignore Maximum Fan-Out Assignments                                         ; Off                ; Off                ;
; Synchronization Register Chain Length                                      ; 2                  ; 2                  ;
; PowerPlay Power Optimization                                               ; Normal compilation ; Normal compilation ;
; HDL message level                                                          ; Level2             ; Level2             ;
; Suppress Register Optimization Related Messages                            ; Off                ; Off                ;
; Number of Removed Registers Reported in Synthesis Report                   ; 5000               ; 5000               ;
; Number of Swept Nodes Reported in Synthesis Report                         ; 5000               ; 5000               ;
; Number of Inverted Registers Reported in Synthesis Report                  ; 100                ; 100                ;
; Clock MUX Protection                                                       ; On                 ; On                 ;
; Auto Gated Clock Conversion                                                ; Off                ; Off                ;
; Block Design Naming                                                        ; Auto               ; Auto               ;
; SDC constraint protection                                                  ; Off                ; Off                ;
; Synthesis Effort                                                           ; Auto               ; Auto               ;
; Shift Register Replacement - Allow Asynchronous Clear Signal               ; On                 ; On                 ;
; Pre-Mapping Resynthesis Optimization                                       ; Off                ; Off                ;
; Analysis & Synthesis Message Level                                         ; Medium             ; Medium             ;
; Disable Register Merging Across Hierarchies                                ; Auto               ; Auto               ;
; Resource Aware Inference For Block RAM                                     ; On                 ; On                 ;
; Synthesis Seed                                                             ; 1                  ; 1                  ;
+----------------------------------------------------------------------------+--------------------+--------------------+


Parallel compilation was disabled, but you have multiple processors available. Enable parallel compilation to reduce compilation time.
+-------------------------------------+
; Parallel Compilation                ;
+----------------------------+--------+
; Processors                 ; Number ;
+----------------------------+--------+
; Number detected on machine ; 4      ;
; Maximum allowed            ; 1      ;
+----------------------------+--------+


+------------------------------------------------------------------------------------------------------------------------------------------------------+
; Analysis & Synthesis Source Files Read                                                                                                               ;
+----------------------------------+-----------------+-----------------+---------------------------------------------------------------------+---------+
; File Name with User-Entered Path ; Used in Netlist ; File Type       ; File Name with Absolute Path                                        ; Library ;
+----------------------------------+-----------------+-----------------+---------------------------------------------------------------------+---------+
; BCD_converter.vhd                ; yes             ; User VHDL File  ; /home/lsd/projeto range sensor/Range_Sensor/BCD_converter.vhd       ;         ;
; Counter.vhd                      ; yes             ; User VHDL File  ; /home/lsd/projeto range sensor/Range_Sensor/Counter.vhd             ;         ;
; Display_ctr.vhd                  ; yes             ; User VHDL File  ; /home/lsd/projeto range sensor/Range_Sensor/Display_ctr.vhd         ;         ;
; Distance_calculator.vhd          ; yes             ; User VHDL File  ; /home/lsd/projeto range sensor/Range_Sensor/Distance_calculator.vhd ;         ;
; Range_Sensor.vhd                 ; yes             ; User VHDL File  ; /home/lsd/projeto range sensor/Range_Sensor/Range_Sensor.vhd        ;         ;
; Top_Range_Sensor.vhd             ; yes             ; User VHDL File  ; /home/lsd/projeto range sensor/Range_Sensor/Top_Range_Sensor.vhd    ;         ;
; Trigger_generator.vhd            ; yes             ; User VHDL File  ; /home/lsd/projeto range sensor/Range_Sensor/Trigger_generator.vhd   ;         ;
+----------------------------------+-----------------+-----------------+---------------------------------------------------------------------+---------+


+-----------------------------------------------------+
; Analysis & Synthesis Resource Usage Summary         ;
+---------------------------------------------+-------+
; Resource                                    ; Usage ;
+---------------------------------------------+-------+
; Estimated Total logic elements              ; 168   ;
;                                             ;       ;
; Total combinational functions               ; 168   ;
; Logic element usage by number of LUT inputs ;       ;
;     -- 4 input functions                    ; 59    ;
;     -- 3 input functions                    ; 38    ;
;     -- <=2 input functions                  ; 71    ;
;                                             ;       ;
; Logic elements by mode                      ;       ;
;     -- normal mode                          ; 86    ;
;     -- arithmetic mode                      ; 82    ;
;                                             ;       ;
; Total registers                             ; 75    ;
;     -- Dedicated logic registers            ; 75    ;
;     -- I/O registers                        ; 0     ;
;                                             ;       ;
; I/O pins                                    ; 15    ;
; Embedded Multiplier 9-bit elements          ; 0     ;
; Maximum fan-out node                        ; clock ;
; Maximum fan-out                             ; 66    ;
; Total fan-out                               ; 713   ;
; Average fan-out                             ; 2.76  ;
+---------------------------------------------+-------+


+--------------------------------------------------------------------------------------------------------------------------------------------------------------------------------------------------------------------------------------------------------+
; Analysis & Synthesis Resource Utilization by Entity                                                                                                                                                                                                    ;
+----------------------------------+-------------------+--------------+-------------+--------------+---------+-----------+------+--------------+------------------------------------------------------------------------------------------+--------------+
; Compilation Hierarchy Node       ; LC Combinationals ; LC Registers ; Memory Bits ; DSP Elements ; DSP 9x9 ; DSP 18x18 ; Pins ; Virtual Pins ; Full Hierarchy Name                                                                      ; Library Name ;
+----------------------------------+-------------------+--------------+-------------+--------------+---------+-----------+------+--------------+------------------------------------------------------------------------------------------+--------------+
; |top_range_sensor                ; 168 (0)           ; 75 (0)       ; 0           ; 0            ; 0       ; 0         ; 15   ; 0            ; |top_range_sensor                                                                        ; work         ;
;    |display_ctr:display|         ; 43 (23)           ; 20 (0)       ; 0           ; 0            ; 0       ; 0         ; 0    ; 0            ; |top_range_sensor|display_ctr:display                                                    ; work         ;
;       |counter:Counter_display|  ; 20 (20)           ; 20 (20)      ; 0           ; 0            ; 0       ; 0         ; 0    ; 0            ; |top_range_sensor|display_ctr:display|counter:Counter_display                            ; work         ;
;    |range_sensor:range_sens|     ; 125 (0)           ; 55 (0)       ; 0           ; 0            ; 0       ; 0         ; 0    ; 0            ; |top_range_sensor|range_sensor:range_sens                                                ; work         ;
;       |BCD_converter:BCD_conv|   ; 29 (29)           ; 0 (0)        ; 0           ; 0            ; 0       ; 0         ; 0    ; 0            ; |top_range_sensor|range_sensor:range_sens|BCD_converter:BCD_conv                         ; work         ;
;       |Distance_calculator:dist| ; 58 (36)           ; 31 (9)       ; 0           ; 0            ; 0       ; 0         ; 0    ; 0            ; |top_range_sensor|range_sensor:range_sens|Distance_calculator:dist                       ; work         ;
;          |counter:Counter_pulse| ; 22 (22)           ; 22 (22)      ; 0           ; 0            ; 0       ; 0         ; 0    ; 0            ; |top_range_sensor|range_sensor:range_sens|Distance_calculator:dist|counter:Counter_pulse ; work         ;
;       |trigger_generator:trig|   ; 38 (14)           ; 24 (0)       ; 0           ; 0            ; 0       ; 0         ; 0    ; 0            ; |top_range_sensor|range_sensor:range_sens|trigger_generator:trig                         ; work         ;
;          |counter:trigg|         ; 24 (24)           ; 24 (24)      ; 0           ; 0            ; 0       ; 0         ; 0    ; 0            ; |top_range_sensor|range_sensor:range_sens|trigger_generator:trig|counter:trigg           ; work         ;
+----------------------------------+-------------------+--------------+-------------+--------------+---------+-----------+------+--------------+------------------------------------------------------------------------------------------+--------------+
Note: For table entries with two numbers listed, the numbers in parentheses indicate the number of resources of the given type used by the specific entity alone. The numbers listed outside of parentheses indicate the total resources of the given type used by the specific entity and all of its sub-entities in the hierarchy.


+------------------------------------------------------+
; General Register Statistics                          ;
+----------------------------------------------+-------+
; Statistic                                    ; Value ;
+----------------------------------------------+-------+
; Total registers                              ; 75    ;
; Number of registers using Synchronous Clear  ; 0     ;
; Number of registers using Synchronous Load   ; 0     ;
; Number of registers using Asynchronous Clear ; 46    ;
; Number of registers using Asynchronous Load  ; 0     ;
; Number of registers using Clock Enable       ; 21    ;
; Number of registers using Preset             ; 0     ;
+----------------------------------------------+-------+


+-----------------------------------------------------------------------------------------------------------+
; Parameter Settings for User Entity Instance: range_sensor:range_sens|trigger_generator:trig|counter:trigg ;
+----------------+-------+----------------------------------------------------------------------------------+
; Parameter Name ; Value ; Type                                                                             ;
+----------------+-------+----------------------------------------------------------------------------------+
; n              ; 24    ; Signed Integer                                                                   ;
+----------------+-------+----------------------------------------------------------------------------------+
Note: In order to hide this table in the UI and the text report file, please set the "Show Parameter Settings in Synthesis Report" option in "Analysis and Synthesis Settings -> More Settings" to "Off".


+---------------------------------------------------------------------------------------------------------------------+
; Parameter Settings for User Entity Instance: range_sensor:range_sens|Distance_calculator:dist|counter:Counter_pulse ;
+----------------+-------+--------------------------------------------------------------------------------------------+
; Parameter Name ; Value ; Type                                                                                       ;
+----------------+-------+--------------------------------------------------------------------------------------------+
; n              ; 22    ; Signed Integer                                                                             ;
+----------------+-------+--------------------------------------------------------------------------------------------+
Note: In order to hide this table in the UI and the text report file, please set the "Show Parameter Settings in Synthesis Report" option in "Analysis and Synthesis Settings -> More Settings" to "Off".


+------------------------------------------------------------------------------------------+
; Parameter Settings for User Entity Instance: display_ctr:display|counter:Counter_display ;
+----------------+-------+-----------------------------------------------------------------+
; Parameter Name ; Value ; Type                                                            ;
+----------------+-------+-----------------------------------------------------------------+
; n              ; 20    ; Signed Integer                                                  ;
+----------------+-------+-----------------------------------------------------------------+
Note: In order to hide this table in the UI and the text report file, please set the "Show Parameter Settings in Synthesis Report" option in "Analysis and Synthesis Settings -> More Settings" to "Off".


+----------------------------------------------------------------------------------------------------------------------------+
; Port Connectivity Checks: "display_ctr:display|counter:Counter_display"                                                    ;
+------------------+--------+----------+-------------------------------------------------------------------------------------+
; Port             ; Type   ; Severity ; Details                                                                             ;
+------------------+--------+----------+-------------------------------------------------------------------------------------+
; enable           ; Input  ; Info     ; Stuck at VCC                                                                        ;
; count_out[17..0] ; Output ; Info     ; Connected to dangling logic. Logic that only feeds a dangling port will be removed. ;
+------------------+--------+----------+-------------------------------------------------------------------------------------+


+---------------------------------------------------------------------------------------------------------------------------------------------------------------------------------+
; Port Connectivity Checks: "display_ctr:display"                                                                                                                                 ;
+---------------+-------+----------+----------------------------------------------------------------------------------------------------------------------------------------------+
; Port          ; Type  ; Severity ; Details                                                                                                                                      ;
+---------------+-------+----------+----------------------------------------------------------------------------------------------------------------------------------------------+
; display_reset ; Input ; Warning  ; Declared by entity but not connected by instance. If a default value exists, it will be used.  Otherwise, the port will be connected to GND. ;
+---------------+-------+----------+----------------------------------------------------------------------------------------------------------------------------------------------+


+------------------------------------------------------------------------------------------+
; Port Connectivity Checks: "range_sensor:range_sens|trigger_generator:trig|counter:trigg" ;
+--------+-------+----------+--------------------------------------------------------------+
; Port   ; Type  ; Severity ; Details                                                      ;
+--------+-------+----------+--------------------------------------------------------------+
; enable ; Input ; Info     ; Stuck at VCC                                                 ;
+--------+-------+----------+--------------------------------------------------------------+


+-------------------------------+
; Elapsed Time Per Partition    ;
+----------------+--------------+
; Partition Name ; Elapsed Time ;
+----------------+--------------+
; Top            ; 00:00:02     ;
+----------------+--------------+


+-------------------------------+
; Analysis & Synthesis Messages ;
+-------------------------------+
Info: *******************************************************************
Info: Running Quartus II 64-Bit Analysis & Synthesis
    Info: Version 13.0.1 Build 232 06/12/2013 Service Pack 1 SJ Web Edition
    Info: Processing started: Wed May 30 15:35:37 2018
Info: Command: quartus_map --read_settings_files=on --write_settings_files=off Range_Sensor -c Range_Sensor
Warning (20028): Parallel compilation is not licensed and has been disabled
Info (12021): Found 2 design units, including 1 entities, in source file BCD_converter.vhd
    Info (12022): Found design unit 1: BCD_converter-behavioral
    Info (12023): Found entity 1: BCD_converter
Info (12021): Found 2 design units, including 1 entities, in source file Counter.vhd
    Info (12022): Found design unit 1: counter-behavioral
    Info (12023): Found entity 1: counter
Info (12021): Found 2 design units, including 1 entities, in source file Display_ctr.vhd
    Info (12022): Found design unit 1: display_ctr-arch
    Info (12023): Found entity 1: display_ctr
Info (12021): Found 2 design units, including 1 entities, in source file Distance_calculator.vhd
    Info (12022): Found design unit 1: Distance_calculator-behavioral
    Info (12023): Found entity 1: Distance_calculator
Info (12021): Found 2 design units, including 1 entities, in source file Range_Sensor.vhd
    Info (12022): Found design unit 1: range_sensor-behavioral
    Info (12023): Found entity 1: range_sensor
Info (12021): Found 2 design units, including 1 entities, in source file Range_Sensor_tb.vhd
    Info (12022): Found design unit 1: range_sensor_tb-tb
    Info (12023): Found entity 1: range_sensor_tb
Info (12021): Found 2 design units, including 1 entities, in source file tb_BCD_converter.vhd
    Info (12022): Found design unit 1: tb_BCD_converter-behavior
    Info (12023): Found entity 1: tb_BCD_converter
Info (12021): Found 2 design units, including 1 entities, in source file tb_Counter.vhd
    Info (12022): Found design unit 1: tb_counter-behavior
    Info (12023): Found entity 1: tb_counter
Info (12021): Found 2 design units, including 1 entities, in source file tb_Trigger_generator.vhd
    Info (12022): Found design unit 1: tb_trigger_generator-behavior
    Info (12023): Found entity 1: tb_trigger_generator
Info (12021): Found 2 design units, including 1 entities, in source file Top_Range_Sensor.vhd
    Info (12022): Found design unit 1: top_range_sensor-arch
    Info (12023): Found entity 1: top_range_sensor
Info (12021): Found 2 design units, including 1 entities, in source file Trigger_generator.vhd
    Info (12022): Found design unit 1: trigger_generator-behavioral
    Info (12023): Found entity 1: trigger_generator
Info (12127): Elaborating entity "Top_Range_Sensor" for the top level hierarchy
Info (12128): Elaborating entity "range_sensor" for hierarchy "range_sensor:range_sens"
Info (12128): Elaborating entity "trigger_generator" for hierarchy "range_sensor:range_sens|trigger_generator:trig"
Info (12128): Elaborating entity "counter" for hierarchy "range_sensor:range_sens|trigger_generator:trig|counter:trigg"
Info (12128): Elaborating entity "Distance_calculator" for hierarchy "range_sensor:range_sens|Distance_calculator:dist"
Info (12128): Elaborating entity "counter" for hierarchy "range_sensor:range_sens|Distance_calculator:dist|counter:Counter_pulse"
Info (12128): Elaborating entity "BCD_converter" for hierarchy "range_sensor:range_sens|BCD_converter:BCD_conv"
Info (12128): Elaborating entity "display_ctr" for hierarchy "display_ctr:display"
Info (12128): Elaborating entity "counter" for hierarchy "display_ctr:display|counter:Counter_display"
Warning (12241): 1 hierarchies have connectivity warnings - see the Connectivity Checks report folder
Warning (13024): Output pins are stuck at VCC or GND
    Warning (13410): Pin "an[3]" is stuck at GND
    Warning (13410): Pin "sseg[7]" is stuck at VCC
Info (16010): Generating hard_block partition "hard_block:auto_generated_inst"
    Info (16011): Adding 0 node(s), including 0 DDIO, 0 PLL, 0 transceiver and 0 LCELL
Info (21057): Implemented 183 device resources after synthesis - the final resource count might be different
    Info (21058): Implemented 2 input pins
    Info (21059): Implemented 13 output pins
    Info (21061): Implemented 168 logic cells
Info: Quartus II 64-Bit Analysis & Synthesis was successful. 0 errors, 5 warnings
    Info: Peak virtual memory: 638 megabytes
    Info: Processing ended: Wed May 30 15:35:42 2018
    Info: Elapsed time: 00:00:05
    Info: Total CPU time (on all processors): 00:00:05


